Democracy EDA
…
demo_raw |> 
    group_by(country_name) |>  
    slice(1)

# A tibble: 208 × 43
# Groups:   country_name [208]
   country_name        country_code  year regime_category_index regime_category 
   <chr>               <chr>        <dbl>                 <dbl> <chr>           
 1 Afghanistan         AFG           1950                     5 Royal dictators…
 2 Albania             ALB           1950                     4 Military dictat…
 3 Algeria             DZA           1950                    NA French Overseas…
 4 Angola              AGO           1950                    NA Colony          
 5 Anguilla            AIA           1950                    NA Colony administ…
 6 Antigua and Barbuda ATG           1950                    NA British colony  
 7 Argentina           ARG           1950                     2 Presidential de…
 8 Armenia             ARM           1950                    NA Part of the USSR
 9 Aruba               ABW           1950                    NA Colony          
10 Australia           AUS           1950                     0 Parliamentary d…
# ℹ 198 more rows
# ℹ 38 more variables: is_monarchy <lgl>, is_commonwealth <lgl>,
#   monarch_name <chr>, monarch_accession_year <dbl>, monarch_birthyear <dbl>,
#   is_female_monarch <lgl>, is_democracy <lgl>, is_presidential <lgl>,
#   president_name <chr>, president_accesion_year <dbl>,
#   president_birthyear <dbl>, is_interim_phase <lgl>,
#   is_female_president <lgl>, is_colony <lgl>, colony_of <chr>, …
…
demo_raw |> 
    count(regime_category, sort = TRUE)

# A tibble: 58 × 2
   regime_category             n
   <chr>                   <int>
 1 Civilian dictatorship    2998
 2 Parliamentary democracy  2660
 3 Military dictatorship    1892
 4 Presidential democracy   1509
 5 Mixed democratic         1160
 6 Royal dictatorship       1001
 7 Colony                    811
 8 Part of the USSR          574
 9 Crown Colony              397
10 Part of Yugoslavia        220
# ℹ 48 more rows
…
